-------------------
Wed Jul 22 09:59:50 -05 2020
-------------------
Information about SITIO.TLDR (domain):


Nginx configuration	 wp wpfc (enabled) 
PHP Version		 7.4

SSL			 disabled

###ESTE ARCHIVO ES UN EJEMPLO DEL GENERADO, COPIAR Y DAR PERMISOS DE ESCRITURA A TODOS
